-1,001281;1,263457;-0,5165139;271,5754;181,5569;0,222518;
-1,001285;1,263489;-0,5164071;271,5731;181,6469;0,1321098;
-1,001288;1,263516;-0,5164144;271,5702;181,5508;0,2270356;
-1,001294;1,26356;-0,5164055;271,5674;181,6307;0,1443622;
-1,00131;1,263494;-0,5164248;271,5723;181,577;0,1969948;
-1,001329;1,263544;-0,5163924;271,5703;181,4475;0,3304458;
-1,001338;1,263539;-0,5163785;271,5724;181,5813;0,2037841;
-1,001338;1,263491;-0,5162849;271,5714;181,2956;0,4843503;
-1,001354;1,26347;-0,5162269;271,5742;181,4331;0,3459204;
-1,001455;1,263414;-0,5163721;271,5737;181,336;0,4481756;
-1,001482;1,263454;-0,5163914;271,5746;180,9765;0,8023283;
-1,001367;1,263398;-0,5165402;271,5759;181,2541;0,526959;
-1,001368;1,263402;-0,5165237;271,5777;181,2724;0,5053805;
-1,001294;1,263524;-0,5165139;271,5784;181,2654;0,5128567;
-1,001295;1,263544;-0,5165226;271,5717;181,2746;0,5066895;
-1,001267;1,263564;-0,5165583;271,5726;181,3266;0,4431511;
-1,00127;1,263583;-0,5165006;271,571;181,1087;0,6728;
-1,001218;1,263541;-0,5164534;271,5654;181,2943;0,4796996;
-1,001288;1,263513;-0,5164365;271,5656;181,3285;0,4443761;
-1,001285;1,263498;-0,5163693;271,5575;181,1422;0,6333587;
-1,001267;1,263481;-0,5164717;271,5588;181,6244;0,1437794;
-1,001268;1,263463;-0,5166243;271,5692;181,5109;0,2602749;
-1,001283;1,263435;-0,5166107;271,5636;181,4643;0,3071562;
-1,001304;1,26348;-0,5165094;271,562;181,3824;0,3904389;
-1,001302;1,263474;-0,5163652;271,5606;181,5321;0,2416379;
-1,001379;1,263476;-0,516364;271,5602;181,4868;0,2868617;
-1,001383;1,263501;-0,5164096;271,5669;181,7012;0,07115227;
-1,001268;1,263462;-0,5165981;271,5747;181,7995;359,9597;
-1,00126;1,263464;-0,5166067;271,5707;181,7087;0,05032867;
-1,001221;1,263433;-0,5165881;271,5684;181,7674;-0,003281461;
-1,001216;1,263432;-0,5166037;271,57;181,7514;0,00877797;
-1,00117;1,263381;-0,5166017;271,5582;181,6152;0,1432326;
-1,001186;1,263418;-0,5165434;271,5526;181,6223;0,1326727;
-1,001241;1,26341;-0,5165336;271,5526;181,8664;359,8892;
-1,001309;1,26339;-0,5163547;271,5533;181,9258;359,8152;
-1,001318;1,263373;-0,5163335;271,5556;181,6853;0,06090084;
-1,001338;1,263411;-0,5163425;271,5567;181,5498;0,2063722;
-1,001368;1,263367;-0,5163645;271,5548;181,5832;0,1631764;
-1,001382;1,263348;-0,5163685;271,5571;181,7934;359,9571;
-1,001406;1,263413;-0,5164069;271,5582;181,8795;359,8719;
-1,001422;1,263411;-0,5164973;271,5642;181,727;0,02664801;
-1,001364;1,26341;-0,5165956;271,5587;181,192;0,557985;
-1,001326;1,263461;-0,516647;271,559;181,2448;0,5103256;
-1,001325;1,263457;-0,5166682;271,5619;181,2553;0,497241;
-1,00127;1,263474;-0,5166208;271,5593;181,1287;0,6216298;
-1,001164;1,263458;-0,5166112;271,5551;180,8897;0,8661198;
-1,001257;1,263493;-0,5165628;271,5553;181,0544;0,6986564;
-1,001286;1,263523;-0,5165473;271,5476;181,5608;0,1971816;
-1,001289;1,263536;-0,516567;271,5498;181,4415;0,3114247;
-1,001227;1,263515;-0,516543;271,5447;181,3047;0,4548967;
-1,00122;1,26352;-0,5166184;271,549;181,493;0,264959;
-1,001217;1,26347;-0,5165994;271,5522;181,359;0,3974718;
-1,001197;1,263417;-0,51653;271,55;181,1618;0,600921;
-1,001307;1,263545;-0,5163959;271,5524;181,4427;0,315727;
-1,001349;1,263578;-0,5163916;271,5453;181,3041;0,4554631;
-1,001383;1,263554;-0,5164815;271,5588;181,1726;0,5907893;
-1,001412;1,263508;-0,5164882;271,5546;181,0718;0,6917803;
-1,0014;1,26348;-0,5164415;271,5499;181,0151;0,7527143;
-1,001409;1,263481;-0,5163362;271,5488;180,8411;0,9249316;
-1,001385;1,263494;-0,5163934;271,5588;180,6711;1,099002;
-1,001385;1,263464;-0,516519;271,5619;180,7852;0,9870383;
-1,001309;1,263469;-0,5165213;271,562;180,5285;1,239809;
-1,001283;1,263479;-0,5164952;271,5612;180,3925;1,383692;
-1,001268;1,263487;-0,5164496;271,5613;180,3299;1,445647;
-1,001273;1,263485;-0,5164459;271,5582;180,263;1,514661;
-1,00133;1,263534;-0,5163971;271,56;180,5927;1,18257;
-1,001357;1,263515;-0,5164527;271,5571;180,7165;1,066797;
-1,001337;1,263463;-0,5163925;271,5573;180,5583;1,222279;
-1,00133;1,263488;-0,5163893;271,5563;180,4832;1,294798;
-1,001298;1,263424;-0,5162915;271,5587;180,6393;1,141468;
-1,001287;1,263516;-0,5163311;271,5636;180,6003;1,184559;
-1,001277;1,26352;-0,5163337;271,5645;180,6105;1,176102;
-1,001258;1,263485;-0,5164992;271,5738;180,6617;1,11364;
-1,00127;1,263457;-0,5164999;271,5707;180,7579;1,017464;
-1,001261;1,263503;-0,5165318;271,5706;180,7607;1,020652;
-1,001268;1,263483;-0,5164969;271,5715;180,9965;0,7843945;
-1,001277;1,263528;-0,5165035;271,5655;181,0427;0,735543;
-1,001282;1,263555;-0,5165685;271,5681;181,0712;0,714586;
-1,001267;1,263549;-0,5165534;271,572;181,2882;0,491727;
-1,001263;1,263566;-0,5165795;271,566;181,153;0,6227038;
-1,001284;1,263521;-0,516554;271,5728;180,9306;0,8471633;
-1,001276;1,263592;-0,5164641;271,5682;181,2132;0,5603496;
-1,001263;1,263568;-0,5164009;271,5548;180,777;0,9990163;
-1,001336;1,263567;-0,5163945;271,5651;181,2303;0,5430478;
-1,001333;1,263571;-0,5163523;271,5549;181,0896;0,6833616;
-1,001356;1,263533;-0,5164076;271,5634;181,4478;0,3235784;
-1,001336;1,263518;-0,5164713;271,5661;181,4798;0,3005458;
-1,001293;1,263526;-0,5165145;271,5671;181,2299;0,5473667;
-1,001278;1,263508;-0,516513;271,5675;181,3123;0,4681269;
-1,00118;1,263474;-0,5165149;271,5635;181,1129;0,6648871;
-1,001182;1,263559;-0,5165514;271,5621;181,1597;0,6225926;
-1,001114;1,263554;-0,5166167;271,5552;181,3504;0,430511;
-1,001191;1,26351;-0,5166105;271,5588;181,6351;0,139244;
-1,001173;1,263537;-0,516541;271,5552;181,3197;0,4562531;
-1,001174;1,263548;-0,5165615;271,5591;181,5918;0,1804038;
-1,001233;1,263457;-0,5165269;271,5638;181,8484;359,9256;
-1,001259;1,263387;-0,5165879;271,5622;181,504;0,2730526;
-1,001296;1,26343;-0,5165807;271,5616;181,7784;-0,0007576613;
-1,001332;1,26345;-0,5166074;271,5527;181,5648;0,2134796;
-1,001329;1,263497;-0,5166305;271,5559;181,4769;0,309169;
-1,001344;1,263506;-0,5165783;271,5524;181,5943;0,1762778;
-1,001359;1,263538;-0,5164438;271,5493;181,4866;0,2899749;
-1,001393;1,26351;-0,5162958;271,5455;181,6832;0,09449009;
-1,0014;1,263515;-0,5162743;271,5493;181,7589;0,01690778;
-1,001378;1,263627;-0,5162758;271,5468;181,7934;359,9789;
-1,001393;1,263498;-0,5162424;271,5515;181,5759;0,2057378;
-1,001393;1,263628;-0,5162646;271,5562;181,7203;0,04759048;
-1,001246;1,26339;-0,5164322;271,554;181,6162;0,1578652;
-1,001238;1,263384;-0,5164138;271,5514;181,456;0,3186421;
-1,001238;1,263361;-0,5163993;271,5586;181,6454;0,1296489;
-1,001239;1,263387;-0,5165404;271,5549;181,741;0,03243385;
-1,001289;1,263504;-0,5165726;271,565;181,9643;359,8097;
-1,001299;1,263556;-0,5165236;271,5583;181,9882;359,7848;
-1,00128;1,263509;-0,5164901;271,5637;181,8308;359,9465;
-1,00128;1,263529;-0,5164942;271,5577;181,7728;-0,0004769617;
-1,001323;1,263536;-0,5165132;271,5593;181,8584;359,9095;
-1,001388;1,2636;-0,5165294;271,5566;181,8776;359,8916;
-1,001384;1,263648;-0,5165185;271,564;182,0365;359,7303;
-1,001391;1,263654;-0,5165194;271,5588;181,9838;359,7884;
-1,001274;1,263543;-0,5164404;271,5582;181,8681;359,9054;
-1,001256;1,263416;-0,5163761;271,5582;182,0663;359,7028;
-1,001243;1,263399;-0,5163802;271,563;181,8371;359,9343;
-1,001149;1,263368;-0,5165508;271,559;181,838;359,921;
-1,001251;1,263359;-0,5165697;271,5621;181,9716;359,8008;
-1,001259;1,263373;-0,5165499;271,5577;181,8177;359,9502;
-1,00121;1,263468;-0,5167171;271,5573;181,8647;359,9097;
-1,001324;1,263479;-0,516517;271,5532;181,8013;359,97;
-1,001364;1,263522;-0,5165206;271,5537;181,858;359,9138;
-1,001372;1,263539;-0,5165156;271,5557;182,2032;359,5687;
-1,001325;1,263486;-0,5166384;271,5522;181,9486;359,8252;
-1,00125;1,263537;-0,5164932;271,5513;181,7961;359,9784;
-1,001231;1,263526;-0,5165181;271,5486;182,0417;359,7227;
-1,001206;1,263475;-0,516477;271,5514;181,7468;0,02491065;
-1,001259;1,263461;-0,5164936;271,5563;181,6835;0,09049994;
-1,001331;1,263475;-0,5164495;271,5533;181,8956;359,8753;
-1,001326;1,263444;-0,5164663;271,5537;181,6952;0,07937414;
-1,001288;1,2635;-0,5165009;271,5593;181,7858;359,9819;
-1,001289;1,263506;-0,5164937;271,5595;181,9049;359,861;
-1,001251;1,263534;-0,516452;271,5522;181,6539;0,1170648;
-1,001252;1,263458;-0,5163938;271,5588;181,5513;0,2165348;
-1,001225;1,263502;-0,5162195;271,5555;181,8094;359,9598;
-1,001187;1,263455;-0,516318;271,5609;181,6161;0,1628911;
-1,001194;1,263475;-0,5163602;271,5645;181,5419;0,2316438;
-1,001287;1,263547;-0,5163633;271,5679;181,4944;0,2738742;
-1,001289;1,263564;-0,5163873;271,5616;181,5648;0,2108785;
-1,001371;1,26356;-0,5163984;271,5669;181,4622;0,3132631;
-1,001346;1,263557;-0,5164963;271,5758;181,6862;0,08700325;
-1,001338;1,263562;-0,5165323;271,5721;181,358;0,4183767;
-1,001305;1,263547;-0,5165056;271,572;181,5327;0,2458685;
-1,001271;1,263541;-0,5164994;271,569;181,2515;0,5261355;
-1,001248;1,26352;-0,5165569;271,566;180,8002;0,9782988;
-1,001276;1,263518;-0,5165631;271,5625;181,1362;0,6408593;
-1,001202;1,263491;-0,5166476;271,5676;181,1354;0,646519;
-1,001171;1,263437;-0,5166652;271,5626;181,3073;0,4671749;
-1,001156;1,263433;-0,5166663;271,5632;181,1661;0,6060144;
-1,001273;1,263441;-0,5166045;271,5612;181,3167;0,455936;
-1,001263;1,263439;-0,516615;271,5571;181,366;0,4033275;
-1,001249;1,263477;-0,5165633;271,5621;181,6819;0,08504681;
-1,001244;1,263487;-0,5165683;271,5581;181,8246;359,9442;
-1,00123;1,263408;-0,5164663;271,5567;181,8787;359,8876;
-1,00123;1,263441;-0,5163965;271,5536;181,7254;0,04134271;
-1,001288;1,263505;-0,5163977;271,5495;182,204;359,5633;
-1,001364;1,263477;-0,5163978;271,5508;182,0698;359,6921;
-1,001443;1,263438;-0,516287;271,5518;182,0823;359,6915;
-1,001464;1,26344;-0,5162629;271,548;182,1206;359,6531;
-1,001529;1,263401;-0,5160927;271,5582;182,3866;359,3821;
-1,001537;1,263445;-0,5162209;271,5581;182,2421;359,5266;
-1,001423;1,263378;-0,5163695;271,5548;182,0427;359,7289;
-1,001423;1,263511;-0,5164179;271,5636;181,881;359,8919;
-1,001376;1,263461;-0,5165111;271,5604;181,8142;359,9606;
-1,001382;1,263471;-0,5165137;271,568;182,0496;359,7283;
-1,001282;1,263454;-0,5165185;271,5699;181,7221;0,04736682;
-1,001279;1,263426;-0,516549;271,5654;181,8119;359,9677;
-1,001272;1,263438;-0,5165609;271,562;181,7918;359,9855;
-1,001251;1,263446;-0,5165913;271,5722;181,9193;359,8518;
-1,00124;1,263447;-0,5166159;271,5679;181,764;0,01396729;
-1,001214;1,263433;-0,516543;271,5592;181,4677;0,3128432;
-1,001263;1,263468;-0,5163825;271,561;181,5284;0,2460312;
-1,001316;1,263517;-0,5164447;271,5679;181,7491;0,02865042;
-1,001309;1,263492;-0,5164932;271,5609;181,8354;359,9453;
-1,001328;1,263548;-0,5165075;271,5687;181,6457;0,1337018;
-1,001338;1,263576;-0,5164834;271,5676;181,7304;0,0480813;
-1,001414;1,263505;-0,516476;271,5697;181,6793;0,09231759;
-1,001477;1,263529;-0,5166241;271,5792;181,5255;0,245212;
-1,001346;1,263526;-0,5165039;271,5641;181,4413;0,3366473;
-1,001312;1,26349;-0,5165197;271,5676;181,1234;0,659466;
-1,001306;1,263554;-0,516529;271,5753;181,4334;0,3487642;
-1,0013;1,263573;-0,5165337;271,5686;181,5802;0,205181;
-1,001254;1,263484;-0,5165203;271,5693;181,2037;0,5845698;
-1,001245;1,2634;-0,5165008;271,5721;181,2928;0,4948276;
