725,3
758,39
682,93
685,43
738,25
725,91
730,51
706,14
772,1
761,64
781,329
759,17
849,46
628,1
714,2
693,4
721,1
779,1
601,2
820,92
768,58
787,2
745,2
921,35
702,3
831,329
735,1
849,37
737,47
778,6
965,212
675,75
796,2
701,4
764,95
735,89
735,37
759,4
715,3
503,58
758,119
764,3
747,6
774,58
732,52
709,25
734,4
789,72
788,5
752,4
