﻿voe av;858;35;-1;1.5
voe av;769;35;-1;1.5
voe av;855;35;-1;1.5
voe av;797;35;-1;1.5
voe av;754;35;-1;1.5
voe av;812;35;-1;1.5
voe av;754;35;-1;1.5
voe av;855;35;-1;1.5
voe av;846;35;-1;1.5
voe av;766;35;-1;1.5
voe av;812;35;-1;1.5
voe av;770;35;-1;1.5
voe av;698;35;-1;1.5
voe av;773;35;-1;1.5
voe av;723;35;-1;1.5
voe av;722;35;-1;1.5
voe av;802;35;-1;1.5
voe av;812;35;-1;1.5
voe av;783;35;-1;1.5
voe av;839;35;-1;1.5
oerl sw;743;8;-1;1.5
oerl sw;718;8;-1;1.5
oerl sw;786;8;-1;1.5
oerl sw;773;8;-1;1.5
oerl sw;700;8;-1;1.5
oerl sw;921;8;-1;1.5
oerl sw;752;8;-1;1.5
oerl sw;710;8;-1;1.5
oerl sw;787;8;-1;1.5
oerl sw;797;8;-1;1.5
oerl sw;820;8;-1;1.5
oerl sw;665;8;-1;1.5
oerl sw;743;8;-1;1.5
oerl sw;795;8;-1;1.5
oerl sw;707;8;-1;1.5
oerl sw;792;8;-1;1.5
oerl sw;640;8;-1;1.5
oerl sw;823;8;-1;1.5
oerl sw;715;8;-1;1.5
oerl sw;805;8;-1;1.5
cmc us;739;3;-1;1.5
cmc us;769;3;-1;1.5
cmc us;746;3;-1;1.5
cmc us;785;3;-1;1.5
cmc us;843;3;-1;1.5
cmc us;856;3;-1;1.5
cmc us;703;3;-1;1.5
cmc us;801;3;-1;1.5
cmc us;913;3;-1;1.5
cmc us;761;3;-1;1.5
cmc us;682;3;-1;1.5
cmc us;802;3;-1;1.5
cmc us;734;3;-1;1.5
cmc us;767;3;-1;1.5
cmc us;836;3;-1;1.5
cmc us;687;3;-1;1.5
cmc us;855;3;-1;1.5
cmc us;658;3;-1;1.5
cmc us;706;3;-1;1.5
cmc us;816;3;-1;1.5
abbn sw;889;329;-1;1.5
abbn sw;854;329;-1;1.5
abbn sw;776;329;-1;1.5
abbn sw;880;329;-1;1.5
abbn sw;881;329;-1;1.5
abbn sw;934;329;-1;1.5
abbn sw;960;329;-1;1.5
abbn sw;899;329;-1;1.5
abbn sw;891;329;-1;1.5
abbn sw;927;329;-1;1.5
abbn sw;950;329;-1;1.5
abbn sw;871;329;-1;1.5
abbn sw;917;329;-1;1.5
abbn sw;871;329;-1;1.5
abbn sw;922;329;-1;1.5
abbn sw;787;329;-1;1.5
abbn sw;905;329;-1;1.5
abbn sw;797;329;-1;1.5
abbn sw;896;329;-1;1.5
abbn sw;831;329;-1;1.5
voe av;832;35;0;1.5
voe av;774;35;0;1.5
voe av;822;35;0;1.5
voe av;849;35;0;1.5
voe av;853;35;0;1.5
voe av;640;35;0;1.5
voe av;667;35;0;1.5
voe av;705;35;0;1.5
voe av;708;35;0;1.5
voe av;819;35;0;1.5
voe av;848;35;0;1.5
voe av;669;35;0;1.5
voe av;703;35;0;1.5
voe av;716;35;0;1.5
voe av;731;35;0;1.5
voe av;815;35;0;1.5
voe av;777;35;0;1.5
voe av;765;35;0;1.5
voe av;840;35;0;1.5
voe av;722;35;0;1.5
oerl sw;730;8;0;1.5
oerl sw;705;8;0;1.5
oerl sw;782;8;0;1.5
oerl sw;749;8;0;1.5
oerl sw;605;8;0;1.5
oerl sw;758;8;0;1.5
oerl sw;707;8;0;1.5
oerl sw;667;8;0;1.5
oerl sw;694;8;0;1.5
oerl sw;620;8;0;1.5
oerl sw;634;8;0;1.5
oerl sw;735;8;0;1.5
oerl sw;785;8;0;1.5
oerl sw;685;8;0;1.5
oerl sw;608;8;0;1.5
oerl sw;652;8;0;1.5
oerl sw;728;8;0;1.5
oerl sw;680;8;0;1.5
oerl sw;828;8;0;1.5
oerl sw;780;8;0;1.5
cmc us;876;3;0;1.5
cmc us;687;3;0;1.5
cmc us;779;3;0;1.5
cmc us;841;3;0;1.5
cmc us;765;3;0;1.5
cmc us;667;3;0;1.5
cmc us;698;3;0;1.5
cmc us;810;3;0;1.5
cmc us;850;3;0;1.5
cmc us;863;3;0;1.5
cmc us;552;3;0;1.5
cmc us;696;3;0;1.5
cmc us;611;3;0;1.5
cmc us;409;3;0;1.5
cmc us;659;3;0;1.5
cmc us;505;3;0;1.5
cmc us;845;3;0;1.5
cmc us;450;3;0;1.5
cmc us;843;3;0;1.5
cmc us;668;3;0;1.5
abbn sw;933;329;0;1.5
abbn sw;870;329;0;1.5
abbn sw;925;329;0;1.5
abbn sw;918;329;0;1.5
abbn sw;928;329;0;1.5
abbn sw;892;329;0;1.5
abbn sw;944;329;0;1.5
abbn sw;945;329;0;1.5
abbn sw;960;329;0;1.5
abbn sw;981;329;0;1.5
abbn sw;917;329;0;1.5
abbn sw;951;329;0;1.5
abbn sw;947;329;0;1.5
abbn sw;924;329;0;1.5
abbn sw;906;329;0;1.5
abbn sw;825;329;0;1.5
abbn sw;943;329;0;1.5
abbn sw;913;329;0;1.5
abbn sw;786;329;0;1.5
abbn sw;807;329;0;1.5
abbn sw;831;329;0;1.5
voe av;837;35;1;1.5
voe av;1015;35;1;1.5
voe av;898;35;1;1.5
voe av;905;35;1;1.5
voe av;680;35;1;1.5
voe av;810;35;1;1.5
voe av;747;35;1;1.5
voe av;672;35;1;1.5
voe av;821;35;1;1.5
voe av;790;35;1;1.5
voe av;691;35;1;1.5
voe av;605;35;1;1.5
voe av;750;35;1;1.5
voe av;760;35;1;1.5
voe av;790;35;1;1.5
voe av;822;35;1;1.5
voe av;882;35;1;1.5
voe av;904;35;1;1.5
voe av;847;35;1;1.5
voe av;847;35;1;1.5
oerl sw;740;8;1;1.5
oerl sw;846;8;1;1.5
oerl sw;676;8;1;1.5
oerl sw;860;8;1;1.5
oerl sw;681;8;1;1.5
oerl sw;873;8;1;1.5
oerl sw;772;8;1;1.5
oerl sw;857;8;1;1.5
oerl sw;827;8;1;1.5
oerl sw;804;8;1;1.5
oerl sw;798;8;1;1.5
oerl sw;838;8;1;1.5
oerl sw;804;8;1;1.5
oerl sw;795;8;1;1.5
oerl sw;739;8;1;1.5
oerl sw;744;8;1;1.5
oerl sw;895;8;1;1.5
oerl sw;696;8;1;1.5
oerl sw;829;8;1;1.5
oerl sw;848;8;1;1.5
cmc us;782;3;1;1.5
cmc us;649;3;1;1.5
cmc us;2005;3;1;1.5
cmc us;918;3;1;1.5
cmc us;829;3;1;1.5
cmc us;808;3;1;1.5
cmc us;836;3;1;1.5
cmc us;959;3;1;1.5
cmc us;729;3;1;1.5
cmc us;787;3;1;1.5
cmc us;853;3;1;1.5
cmc us;785;3;1;1.5
cmc us;997;3;1;1.5
cmc us;812;3;1;1.5
cmc us;842;3;1;1.5
cmc us;680;3;1;1.5
cmc us;692;3;1;1.5
cmc us;826;3;1;1.5
cmc us;842;3;1;1.5
cmc us;786;3;1;1.5
abbn sw;922;329;1;1.5
abbn sw;941;329;1;1.5
abbn sw;900;329;1;1.5
abbn sw;898;329;1;1.5
abbn sw;891;329;1;1.5
abbn sw;948;329;1;1.5
abbn sw;873;329;1;1.5
abbn sw;940;329;1;1.5
abbn sw;722;329;1;1.5
abbn sw;905;329;1;1.5
abbn sw;872;329;1;1.5
abbn sw;910;329;1;1.5
abbn sw;932;329;1;1.5
abbn sw;830;329;1;1.5
abbn sw;997;329;1;1.5
abbn sw;879;329;1;1.5
abbn sw;938;329;1;1.5
abbn sw;943;329;1;1.5
abbn sw;888;329;1;1.5
abbn sw;872;329;1;1.5
abbn sw;910;329;1;1.5