-1,02951;1,255785;1,5903;321,7562;359,0943;180,3503;
-1,029511;1,255811;1,590304;321,7549;359,095;180,3434;
-1,029433;1,25579;1,59038;321,752;359,0894;180,3414;
-1,029387;1,255824;1,590275;321,7607;359,0861;180,3425;
-1,029527;1,255784;1,590253;321,7447;359,0985;180,3383;
-1,029535;1,255809;1,590254;321,7505;359,0871;180,3462;
-1,029533;1,255827;1,590227;321,7608;359,0865;180,3463;
-1,029497;1,255608;1,590207;321,7573;359,0904;180,341;
-1,029566;1,255724;1,590361;321,7665;359,0898;180,3451;
-1,029572;1,25577;1,590313;321,7747;359,0945;180,3286;
-1,029678;1,255788;1,590281;321,7645;359,1038;180,3363;
-1,029686;1,255753;1,590271;321,7743;359,1254;180,2774;
-1,029628;1,255741;1,590407;321,765;359,1298;180,276;
-1,029635;1,25577;1,590444;321,7645;359,1253;180,2776;
-1,029516;1,255785;1,590434;321,7578;359,1323;180,2752;
-1,029449;1,255698;1,590373;321,7609;359,131;180,2756;
-1,029444;1,255702;1,590383;321,7711;359,1342;180,2705;
-1,029426;1,255686;1,5903;321,7629;359,1295;180,2761;
-1,029422;1,255684;1,590299;321,7749;359,1171;180,2803;
-1,029503;1,255587;1,590255;321,7704;359,1357;180,2664;
-1,029506;1,25558;1,590246;321,7802;359,1312;180,2754;
-1,029556;1,255778;1,590249;321,7591;359,1362;180,2664;
-1,029673;1,255753;1,590218;321,7538;359,1424;180,2677;
-1,029665;1,255767;1,590135;321,7517;359,1317;180,268;
-1,029529;1,255601;1,590126;321,7521;359,1333;180,2709;
-1,029514;1,255668;1,590263;321,7588;359,1396;180,2591;
-1,029497;1,255662;1,590264;321,7597;359,1357;180,2634;
-1,029424;1,255591;1,590374;321,7558;359,1457;180,2599;
-1,029488;1,255632;1,590303;321,7453;359,1399;180,2774;
-1,029469;1,255654;1,590323;321,7514;359,1302;180,2807;
-1,029628;1,255707;1,590356;321,7581;359,12;180,2755;
-1,029628;1,25571;1,590351;321,7486;359,1211;180,2752;
-1,029599;1,255662;1,59033;321,7591;359,1261;180,2638;
-1,029572;1,255721;1,59027;321,751;359,1158;180,277;
-1,02956;1,25573;1,590272;321,7589;359,1056;180,2844;
-1,029497;1,255735;1,590265;321,7523;359,1134;180,2818;
-1,029486;1,255751;1,590241;321,7585;359,1105;180,2874;
-1,029613;1,255756;1,590224;321,7466;359,0912;180,3408;
-1,029615;1,255768;1,590214;321,7436;359,0958;180,3346;
-1,029607;1,255676;1,590241;321,7561;359,0858;180,3379;
-1,029629;1,255665;1,59031;321,7526;359,0967;180,3389;
-1,02964;1,255662;1,590307;321,7455;359,0973;180,3387;
-1,02964;1,255671;1,590348;321,7413;359,1005;180,3329;
-1,029621;1,255649;1,590336;321,747;359,105;180,3313;
-1,029615;1,255648;1,590345;321,7514;359,0943;180,335;
-1,029655;1,255667;1,590275;321,7498;359,0862;180,35;
-1,029615;1,255602;1,590289;321,7444;359,0826;180,3513;
-1,029622;1,255576;1,590291;321,7566;359,0807;180,355;
-1,029604;1,255613;1,590325;321,7488;359,0848;180,347;
-1,029553;1,25563;1,590342;321,7506;359,0775;180,3618;
-1,029502;1,255669;1,590287;321,7493;359,0722;180,358;
-1,029495;1,255676;1,590286;321,7511;359,0721;180,3549;
-1,029562;1,255677;1,590325;321,7538;359,0615;180,3617;
-1,029627;1,255694;1,590375;321,766;359,0704;180,3518;
-1,029585;1,255669;1,590383;321,7681;359,0852;180,3427;
-1,029588;1,255665;1,590378;321,768;359,0741;180,3505;
-1,029596;1,25572;1,590431;321,768;359,0981;180,3382;
-1,029659;1,25569;1,590437;321,7465;359,103;180,3367;
-1,029598;1,255693;1,590363;321,7646;359,0992;180,3332;
-1,029634;1,255718;1,59035;321,7646;359,094;180,3397;
-1,029699;1,255682;1,590343;321,7694;359,0819;180,3391;
-1,029716;1,255721;1,590357;321,7625;359,079;180,3489;
-1,029731;1,255723;1,590344;321,763;359,0813;180,3516;
-1,029685;1,255684;1,590331;321,7654;359,0761;180,3459;
-1,029584;1,255711;1,590379;321,7639;359,1081;180,2882;
-1,02956;1,255662;1,590409;321,7661;359,1201;180,284;
-1,02954;1,255667;1,590364;321,7648;359,1072;180,2838;
-1,02954;1,255583;1,59049;321,7606;359,0944;180,3288;
-1,029612;1,255613;1,59046;321,7723;359,0746;180,3463;
-1,02966;1,255646;1,59046;321,7755;359,0821;180,3329;
-1,029648;1,255655;1,590441;321,7726;359,094;180,2992;
-1,029584;1,255602;1,590405;321,7585;359,0855;180,338;
-1,02957;1,255603;1,590401;321,7584;359,1039;180,2897;
-1,029508;1,255629;1,590418;321,7571;359,0906;180,3301;
-1,029536;1,255652;1,59043;321,7583;359,12;180,2841;
-1,029528;1,255642;1,59049;321,7625;359,1077;180,2884;
-1,029581;1,255717;1,590522;321,7491;359,113;180,2867;
-1,029645;1,255681;1,590421;321,7589;359,1162;180,2855;
-1,02974;1,255614;1,590412;321,7697;359,1087;180,2941;
-1,029748;1,25561;1,590411;321,7653;359,1076;180,2837;
-1,029727;1,255621;1,590354;321,7676;359,1043;180,2895;
-1,029774;1,255653;1,590352;321,7724;359,1112;180,2784;
-1,029786;1,255664;1,59037;321,7805;359,0973;180,2918;
-1,029682;1,255696;1,590441;321,7832;359,1236;180,2705;
-1,029717;1,255777;1,590424;321,7623;359,1312;180,2716;
-1,029669;1,255726;1,590404;321,7586;359,1314;180,268;
-1,029701;1,255676;1,590442;321,7637;359,1198;180,2689;
-1,029749;1,25573;1,59039;321,7527;359,1288;180,2725;
-1,029734;1,255738;1,590371;321,7516;359,1305;180,2652;
-1,029672;1,255615;1,590366;321,7654;359,1286;180,269;
-1,029585;1,255506;1,59043;321,771;359,1308;180,2568;
-1,029602;1,255604;1,590498;321,7718;359,1229;180,2596;
-1,029669;1,255599;1,590439;321,7748;359,1299;180,2571;
-1,029724;1,255535;1,590455;321,783;359,1251;180,2639;
-1,029576;1,255633;1,590516;321,7624;359,1255;180,2613;
-1,029598;1,255604;1,590534;321,753;359,118;180,2762;
-1,029625;1,255622;1,590531;321,7525;359,1265;180,2698;
-1,029538;1,255509;1,590484;321,7496;359,1216;180,2789;
-1,029549;1,255482;1,590497;321,7619;359,1277;180,2728;
-1,029529;1,255525;1,590531;321,7608;359,1273;180,2694;
-1,029646;1,255543;1,590548;321,7604;359,1362;180,2663;
-1,029774;1,25556;1,59051;321,7639;359,116;180,2855;
-1,029775;1,255728;1,590399;321,7728;359,1201;180,2753;
-1,029742;1,255668;1,590378;321,7759;359,1129;180,2778;
-1,029724;1,255665;1,590431;321,7815;359,1212;180,2682;
-1,029745;1,255654;1,590486;321,7743;359,1239;180,274;
-1,029733;1,255655;1,590492;321,7698;359,1138;180,2862;
-1,029761;1,255652;1,590477;321,772;359,1211;180,2683;
-1,029689;1,255726;1,59058;321,7724;359,1249;180,267;
-1,029772;1,255687;1,59051;321,7717;359,123;180,2677;
-1,029692;1,255602;1,590389;321,7643;359,1191;180,2691;
-1,029701;1,25557;1,590388;321,7616;359,1202;180,2794;
-1,029754;1,255452;1,590396;321,7692;359,1158;180,2808;
-1,029793;1,255421;1,59046;321,7798;359,0824;180,3327;
-1,029751;1,255423;1,590531;321,7757;359,0977;180,287;
-1,0297;1,255513;1,590592;321,7801;359,0996;180,2863;
-1,029583;1,255584;1,590625;321,7755;359,1082;180,2881;
-1,029559;1,255604;1,590649;321,7754;359,1077;180,2836;
-1,029611;1,2556;1,590601;321,7849;359,1109;180,2824;
-1,0297;1,255831;1,590585;321,7755;359,1165;180,2805;
-1,029571;1,255769;1,590635;321,7758;359,12;180,2793;
-1,029576;1,255769;1,59057;321,771;359,126;180,2773;
-1,029686;1,255672;1,590544;321,7744;359,1151;180,2857;
-1,029754;1,255659;1,590565;321,7733;359,119;180,2797;
-1,029758;1,255672;1,590566;321,7644;359,1231;180,2783;
-1,029828;1,255695;1,590516;321,7631;359,117;180,2804;
-1,029915;1,255772;1,590476;321,7581;359,0956;180,3345;
-1,02978;1,255679;1,590545;321,7596;359,0834;180,3387;
-1,029756;1,255708;1,590523;321,7552;359,0726;180,3472;
-1,029634;1,255655;1,590577;321,7616;359,0749;180,3464;
-1,029496;1,255703;1,590611;321,7535;359,0862;180,3465;
-1,029549;1,25565;1,590681;321,7562;359,0881;180,3458;
-1,029648;1,255737;1,590647;321,7531;359,1013;180,3264;
-1,02979;1,255606;1,590556;321,7562;359,0847;180,343;
-1,029774;1,255579;1,590605;321,7624;359,0806;180,3483;
-1,029806;1,255532;1,590517;321,7714;359,0637;180,3541;
-1,029733;1,255504;1,590586;321,7778;359,0738;180,3466;
-1,029773;1,255721;1,590623;321,7734;359,086;180,3463;
-1,029764;1,255764;1,590681;321,7703;359,091;180,3446;
-1,029871;1,25578;1,59067;321,776;359,0807;180,3395;
-1,029953;1,255835;1,590647;321,762;359,0896;180,3519;
-1,029941;1,255762;1,590617;321,7624;359,0849;180,3535;
-1,029953;1,255713;1,590636;321,76;359,1012;180,3372;
-1,029875;1,255656;1,59059;321,7449;359,1046;180,3362;
-1,02982;1,255543;1,590586;321,7361;359,1178;180,3209;
-1,029789;1,255559;1,590557;321,745;359,1017;180,3447;
-1,029755;1,255494;1,590585;321,7488;359,0966;180,3389;
-1,029757;1,255512;1,590646;321,754;359,0984;180,3336;
-1,02974;1,255517;1,590654;321,746;359,0977;180,3339;
-1,02976;1,255504;1,590622;321,7571;359,094;180,3351;
-1,029705;1,255437;1,590597;321,7489;359,0869;180,3423;
-1,029692;1,255444;1,590595;321,7629;359,0823;180,3438;
-1,029714;1,255399;1,59069;321,7746;359,0711;180,3515;
-1,029664;1,255394;1,590739;321,7762;359,0705;180,3517;
-1,029763;1,255435;1,590699;321,7899;359,0692;180,3616;
-1,029627;1,255564;1,590711;321,7793;359,0775;180,3559;
-1,029748;1,255651;1,59067;321,7741;359,067;180,3724;
-1,029794;1,255659;1,590617;321,771;359,0764;180,3593;
-1,029797;1,255663;1,590564;321,7715;359,0854;180,3501;
-1,029845;1,25567;1,590616;321,7948;359,0652;180,3569;
-1,029916;1,255695;1,590613;321,7884;359,0744;180,3537;
-1,029979;1,255712;1,590578;321,7963;359,0629;180,3502;
-1,029924;1,255691;1,590584;321,7977;359,0841;180,3381;
-1,029874;1,255731;1,590546;321,7728;359,0993;180,3418;
-1,029866;1,255767;1,590563;321,7677;359,1106;180,2935;
-1,029899;1,255756;1,590569;321,7647;359,0994;180,3378;
-1,029941;1,255634;1,590531;321,767;359,076;180,3534;
-1,029953;1,255638;1,590535;321,7775;359,0677;180,3526;
-1,029902;1,255633;1,590644;321,7874;359,0656;180,3493;
-1,029896;1,25561;1,590712;321,784;359,0457;180,3698;
