-1,979919;1,250247;-0,4472753;321,9051;359,4019;180,4857;
-1,979909;1,25023;-0,4473325;321,9012;359,3889;180,4926;
-1,979918;1,250232;-0,4473281;321,904;359,3871;180,4857;
-1,979946;1,250228;-0,4472202;321,9065;359,3925;180,483;
-1,979941;1,250222;-0,4472271;321,9102;359,3953;180,4836;
-1,979978;1,250218;-0,4472816;321,9041;359,3809;180,4854;
-1,979987;1,25023;-0,4472804;321,9036;359,3849;180,4884;
-1,979989;1,250291;-0,4471881;321,9023;359,389;180,4839;
-1,979959;1,250224;-0,4471282;321,9093;359,3993;180,475;
-1,979924;1,250171;-0,4471465;321,9063;359,4021;180,472;
-1,979926;1,250123;-0,4472122;321,9007;359,394;180,4785;
-1,979944;1,250101;-0,4471699;321,902;359,3833;180,4777;
-1,979931;1,250127;-0,4471731;321,9077;359,3851;180,4753;
-1,979887;1,250137;-0,4472632;321,9014;359,3844;180,485;
-1,979881;1,250129;-0,4472709;321,9052;359,3965;180,48;
-1,979903;1,250084;-0,4473507;321,9019;359,399;180,4836;
-1,979909;1,250108;-0,4473521;321,9005;359,3891;180,4913;
-1,979902;1,250095;-0,4473828;321,9025;359,3892;180,4932;
-1,979918;1,250112;-0,4472002;321,9147;359,3817;180,4981;
-1,979922;1,25017;-0,4472145;321,9156;359,3802;180,4974;
-1,979917;1,250159;-0,4472914;321,9138;359,3839;180,4989;
-1,979913;1,250171;-0,4472889;321,9164;359,3827;180,4973;
-1,979921;1,250195;-0,4473915;321,9045;359,3714;180,5093;
-1,979836;1,250213;-0,4474367;321,9034;359,3796;180,4981;
-1,979834;1,250207;-0,4474655;321,901;359,3827;180,5013;
-1,979866;1,250093;-0,4474707;321,9069;359,3844;180,4956;
-1,979872;1,250111;-0,4473915;321,9116;359,3861;180,4824;
-1,979888;1,250144;-0,4472518;321,9099;359,3809;180,4961;
-1,979893;1,250135;-0,4472425;321,9146;359,3743;180,5018;
-1,979986;1,250248;-0,4471329;321,9124;359,3868;180,4881;
-1,979997;1,250263;-0,4471257;321,9124;359,3799;180,4948;
-1,97994;1,250255;-0,4471517;321,9082;359,3907;180,4884;
-1,979875;1,250241;-0,4471316;321,9041;359,3922;180,491;
-1,979908;1,250162;-0,4471122;321,9093;359,3854;180,4878;
-1,979916;1,250163;-0,4470973;321,9112;359,3875;180,4934;
-1,979913;1,2502;-0,4471625;321,9134;359,3813;180,4955;
-1,979981;1,250132;-0,4471556;321,9084;359,3837;180,4845;
-1,979991;1,250121;-0,4471697;321,906;359,3728;180,4977;
-1,980024;1,250123;-0,4471738;321,906;359,3758;180,4924;
-1,980009;1,25019;-0,4472016;321,9001;359,3747;180,4892;
-1,97992;1,250184;-0,4471265;321,8977;359,3879;180,4918;
-1,979905;1,250252;-0,4470587;321,9063;359,3908;180,4888;
-1,979897;1,25026;-0,4470577;321,9019;359,3912;180,4952;
-1,979889;1,250198;-0,4472196;321,9068;359,397;180,4814;
-1,979931;1,250196;-0,4473191;321,8951;359,3813;180,496;
-1,979923;1,250118;-0,4473579;321,9026;359,378;180,4936;
-1,97992;1,250098;-0,4473914;321,8998;359,3832;180,4942;
-1,979877;1,250095;-0,4473977;321,9055;359,3701;180,4971;
-1,9799;1,250086;-0,4473573;321,9161;359,3735;180,4903;
-1,9799;1,25015;-0,4473455;321,909;359,3706;180,491;
-1,979914;1,250154;-0,4472098;321,9188;359,3704;180,4937;
-1,979906;1,250151;-0,4471195;321,9256;359,364;180,4899;
-1,979901;1,250159;-0,447099;321,9309;359,3612;180,498;
-1,979935;1,250219;-0,4471986;321,9168;359,3625;180,4989;
-1,979925;1,250141;-0,4471576;321,9229;359,3612;180,5039;
-1,979892;1,250142;-0,4470093;321,9303;359,3625;180,5073;
-1,979907;1,250129;-0,4469628;321,9307;359,3667;180,5004;
-1,979948;1,250074;-0,4470905;321,9175;359,3707;180,5053;
-1,979973;1,250171;-0,4472022;321,9166;359,3681;180,5031;
-1,979933;1,250137;-0,4473352;321,9065;359,3714;180,5009;
-1,980037;1,250212;-0,4473566;321,9085;359,3756;180,4987;
-1,980038;1,25021;-0,4472517;321,9107;359,37;180,5036;
-1,980023;1,250234;-0,447084;321,9087;359,3629;180,5077;
-1,979978;1,250239;-0,447082;321,9086;359,3672;180,5077;
-1,979949;1,250257;-0,4470818;321,9182;359,3852;180,4937;
-1,979997;1,250208;-0,4471985;321,9157;359,3751;180,5038;
-1,980092;1,250176;-0,4474019;321,9178;359,3716;180,5061;
-1,980093;1,2502;-0,4474071;321,9021;359,3761;180,5005;
-1,980001;1,250149;-0,4473438;321,9114;359,3816;180,5012;
-1,979996;1,250091;-0,44713;321,9201;359,3775;180,5002;
-1,980014;1,250143;-0,4469612;321,9215;359,3725;180,5065;
-1,980098;1,250292;-0,447019;321,9178;359,3744;180,5002;
-1,980073;1,250285;-0,4471655;321,9135;359,3788;180,507;
-1,980133;1,250248;-0,4472135;321,9138;359,3701;180,5036;
-1,979952;1,250223;-0,4473119;321,9116;359,3831;180,4968;
-1,979934;1,250123;-0,4472864;321,9109;359,3912;180,4964;
-1,97994;1,250145;-0,4472382;321,9002;359,3786;180,4918;
-1,979895;1,250197;-0,447183;321,9141;359,3894;180,495;
-1,979899;1,250119;-0,4470503;321,9104;359,3864;180,4957;
-1,979893;1,250123;-0,4470328;321,9136;359,3828;180,5011;
-1,979848;1,250228;-0,4470164;321,9166;359,3978;180,4963;
-1,979947;1,250177;-0,4472181;321,9117;359,3914;180,497;
-1,979934;1,25014;-0,4472183;321,906;359,3895;180,4923;
-1,980121;1,250189;-0,4471424;321,9195;359,3747;180,5027;
-1,980129;1,250193;-0,4471366;321,9172;359,3777;180,4975;
-1,980107;1,25014;-0,447258;321,9111;359,3745;180,492;
-1,980092;1,25019;-0,4473312;321,9102;359,3743;180,4948;
-1,980066;1,250155;-0,4473181;321,9223;359,374;180,4897;
-1,980077;1,250127;-0,4473305;321,9023;359,3705;180,4833;
-1,979981;1,250181;-0,4473131;321,9112;359,3629;180,4888;
-1,979893;1,250189;-0,4473948;321,906;359,3702;180,4899;
-1,979881;1,250195;-0,4473985;321,9119;359,3767;180,4948;
-1,979883;1,250115;-0,4472269;321,9164;359,3839;180,4831;
-1,979861;1,250122;-0,447215;321,9231;359,3775;180,4877;
-1,979863;1,250032;-0,4471135;321,9233;359,3748;180,4886;
-1,979948;1,250151;-0,4469655;321,9324;359,3665;180,4962;
-1,979986;1,250232;-0,4469987;321,9336;359,3695;180,4904;
-1,980001;1,250227;-0,4470465;321,9161;359,3675;180,4924;
-1,979999;1,250238;-0,4470259;321,9156;359,3717;180,4865;
-1,979994;1,250189;-0,4469987;321,9159;359,3697;180,4839;
-1,98;1,250185;-0,4471431;321,9092;359,3683;180,4873;
-1,980006;1,25015;-0,4471889;321,9077;359,3683;180,4836;
-1,980039;1,25011;-0,4472182;321,9119;359,3726;180,4775;
-1,979975;1,250056;-0,4471953;321,9094;359,3754;180,4909;
-1,979908;1,250074;-0,4472755;321,9022;359,3786;180,4822;
-1,97989;1,250031;-0,4472289;321,9109;359,3737;180,4966;
-1,979871;1,25018;-0,4472163;321,9092;359,3737;180,4966;
-1,979956;1,250212;-0,4472615;321,9095;359,3712;180,4967;
-1,979942;1,250231;-0,4472735;321,9012;359,3725;180,4935;
-1,979997;1,250144;-0,4471313;321,9086;359,3916;180,4908;
-1,980015;1,250117;-0,4470565;321,9094;359,3801;180,4975;
-1,98004;1,250187;-0,4470193;321,913;359,3813;180,4936;
-1,980003;1,250136;-0,4471684;321,9092;359,3908;180,4972;
-1,98004;1,250134;-0,4472305;321,9099;359,375;180,5038;
-1,980045;1,250178;-0,4471302;321,9096;359,3941;180,4907;
-1,980015;1,2502;-0,4471588;321,9138;359,3874;180,498;
-1,979948;1,250187;-0,4471626;321,9185;359,3874;180,4859;
-1,97992;1,250156;-0,4472178;321,9109;359,3863;180,4867;
-1,979911;1,250265;-0,4472607;321,9006;359,4042;180,4729;
-1,979885;1,250219;-0,4474142;321,9075;359,3993;180,475;
-1,979931;1,250141;-0,4471512;321,9137;359,3894;180,4771;
-1,980024;1,250115;-0,4472487;321,9109;359,3887;180,4827;
-1,980047;1,25012;-0,4473642;321,9074;359,3964;180,476;
-1,980018;1,250099;-0,4473851;321,9081;359,3995;180,4846;
-1,98003;1,250162;-0,4473298;321,9053;359,4033;180,4809;
-1,980035;1,250205;-0,4473572;321,9119;359,3911;180,4894;
-1,980053;1,250174;-0,4472667;321,9111;359,3921;180,4779;
-1,980019;1,25013;-0,4471761;321,9073;359,3741;180,4961;
-1,980025;1,25018;-0,4470036;321,9115;359,3892;180,4805;
-1,980026;1,250187;-0,4469671;321,907;359,3855;180,4882;
-1,980037;1,250268;-0,4469815;321,9071;359,3948;180,4822;
-1,980018;1,250232;-0,447011;321,9187;359,3962;180,4892;
-1,980096;1,25025;-0,4471073;321,912;359,3898;180,4859;
-1,980076;1,250218;-0,4473118;321,9035;359,3831;180,5022;
-1,979951;1,250162;-0,4472029;321,9104;359,3988;180,4926;
-1,979941;1,250158;-0,4472111;321,9135;359,4001;180,491;
-1,979919;1,250158;-0,4472133;321,9066;359,4007;180,481;
-1,979911;1,250123;-0,4472102;321,9056;359,3839;180,4977;
-1,979907;1,250114;-0,4472152;321,8984;359,3978;180,5032;
-1,979964;1,250205;-0,4472876;321,9078;359,3895;180,4988;
-1,980042;1,250188;-0,4472518;321,8986;359,3977;180,5029;
-1,980048;1,250183;-0,4472737;321,9128;359,3987;180,4956;
-1,980102;1,250052;-0,44707;321,9052;359,3746;180,5063;
-1,979984;1,250095;-0,4470372;321,9067;359,3861;180,4966;
-1,979919;1,25003;-0,4472185;321,9119;359,3755;180,5052;
-1,979898;1,250024;-0,4472377;321,9124;359,3798;180,4999;
-1,97991;1,250073;-0,4472982;321,9069;359,377;180,5009;
-1,979868;1,250045;-0,4473014;321,9113;359,3837;180,488;
-1,979949;1,250063;-0,4472679;321,9079;359,3847;180,5121;
-1,980004;1,250073;-0,4472886;321,9139;359,3777;180,5104;
-1,980034;1,250094;-0,4472494;321,9249;359,3758;180,5117;
-1,980119;1,250187;-0,4472827;321,9233;359,3666;180,5123;
-1,980112;1,250136;-0,4472396;321,9282;359,3666;180,507;
-1,980046;1,250087;-0,4472378;321,9256;359,3691;180,5073;
-1,97994;1,250098;-0,4472476;321,9275;359,3759;180,5102;
-1,979883;1,250068;-0,4472139;321,9273;359,3719;180,5082;
-1,97986;1,250086;-0,4471231;321,9243;359,3777;180,5118;
-1,97986;1,250125;-0,4471284;321,9215;359,3602;180,5241;
-1,979835;1,250212;-0,4470726;321,9224;359,3575;180,5155;
