0,9757285;1,231669;1,635595;321,6;1,006373;180,288;
0,975749;1,231676;1,63559;321,6015;1,011531;180,2922;
0,9757496;1,231584;1,63558;321,6009;1,010949;180,2936;
0,975661;1,231651;1,63568;321,6087;0,9958422;180,2974;
0,9756604;1,231626;1,635663;321,6133;1,001078;180,2898;
0,9756947;1,231563;1,635681;321,6177;0,9890876;180,2935;
0,9756898;1,231591;1,635746;321,6173;0,9865593;180,2831;
0,9758695;1,231595;1,635746;321,6192;0,9874498;180,2765;
0,9758542;1,231629;1,635764;321,6181;0,987088;180,2761;
0,9757067;1,23161;1,635546;321,615;0,9829751;180,2829;
0,9757057;1,2316;1,635577;321,607;0,9861466;180,2796;
0,9756712;1,231574;1,63566;321,6139;0,984268;180,2874;
0,9756895;1,231558;1,635653;321,611;0,9854551;180,2764;
0,9756899;1,231574;1,635651;321,6073;0,9862616;180,2747;
0,9755744;1,231609;1,635681;321,6212;0,9845231;180,2814;
0,9756436;1,231528;1,635689;321,6212;0,9711263;180,288;
0,9757326;1,231548;1,635634;321,6194;0,9857201;180,2674;
0,9757081;1,231547;1,635624;321,6174;0,9801267;180,2747;
0,9758389;1,231596;1,635648;321,6245;0,9838386;180,2605;
0,9759353;1,231643;1,635537;321,6185;0,9832376;180,2667;
0,9758184;1,231664;1,635499;321,6181;0,9873396;180,2631;
0,9757973;1,231688;1,635477;321,6182;0,9768888;180,2723;
0,9757999;1,231707;1,635466;321,6186;0,9733576;180,2707;
0,9757859;1,231671;1,63554;321,6284;0,9781455;180,2669;
0,9756647;1,231657;1,635611;321,6343;0,9782884;180,2785;
0,9756579;1,231638;1,635667;321,6227;0,9815512;180,2671;
0,9757555;1,231627;1,635618;321,6286;0,9827878;180,2662;
0,9758031;1,231766;1,635481;321,6196;0,9926338;180,2761;
0,9756631;1,231625;1,635458;321,6103;0,9898414;180,274;
0,9756249;1,231594;1,635398;321,6151;0,98264;180,2737;
0,9756398;1,231615;1,635291;321,6219;0,9831365;180,2819;
0,9756262;1,231614;1,635453;321,6198;0,9876569;180,2671;
0,975629;1,231654;1,635619;321,6295;0,9783744;180,2668;
0,9756725;1,231548;1,635614;321,6274;0,9742202;180,2693;
0,9756719;1,2315;1,635628;321,6339;0,9638397;180,2692;
0,9758795;1,231599;1,635592;321,6416;0,994769;180,2574;
0,9760253;1,231599;1,635694;321,6387;0,9939196;180,254;
0,9758118;1,231656;1,635657;321,6321;0,9868925;180,2702;
0,9757308;1,231654;1,635589;321,6255;0,9782479;180,2737;
0,9757693;1,23164;1,635454;321,6234;0,9752564;180,2829;
0,9757754;1,231688;1,635396;321,6215;0,9780052;180,2879;
0,9757483;1,231653;1,635628;321,6433;0,9855487;180,281;
0,9756035;1,231585;1,635638;321,6321;0,9820967;180,2933;
0,9755329;1,231522;1,635645;321,6382;0,9906074;180,2879;
0,9755664;1,231563;1,63558;321,6306;0,9896384;180,2809;
0,9755368;1,231658;1,635647;321,6342;0,9854842;180,2885;
0,975783;1,231673;1,635733;321,6452;0,9783829;180,2809;
0,9758792;1,231609;1,635762;321,6431;0,9813155;180,2777;
0,9758904;1,231638;1,635737;321,6378;0,9859023;180,2704;
0,975746;1,231594;1,635545;321,6249;0,9734429;180,2881;
0,9757596;1,231606;1,635578;321,6328;0,9795809;180,2713;
0,9757766;1,231615;1,635592;321,6358;0,977168;180,2791;
0,9758289;1,231607;1,635591;321,6302;0,9834539;180,2751;
0,9760005;1,23164;1,635541;321,6401;0,9831957;180,2735;
0,9759202;1,231554;1,635553;321,6403;0,9785877;180,2885;
0,9757897;1,231539;1,63555;321,6407;0,9854148;180,284;
0,9758055;1,231668;1,635869;321,6509;0,9813684;180,2878;
0,9758185;1,231678;1,635789;321,6499;0,9836907;180,2782;
0,9758027;1,231663;1,635692;321,6436;0,9904245;180,2786;
0,975824;1,231665;1,635562;321,6337;0,994475;180,2812;
0,9758422;1,231649;1,635599;321,632;0,9874213;180,2864;
0,9757942;1,231674;1,635589;321,6343;0,99268;180,2907;
0,9757885;1,231656;1,635652;321,6275;0,9989514;180,2836;
0,9757609;1,231654;1,635644;321,624;0,9971361;180,2902;
0,975824;1,231634;1,635712;321,6345;0,9846752;180,2768;
0,9757818;1,231611;1,635643;321,6216;0,9710994;180,293;
0,9757925;1,231659;1,635645;321,6201;0,9772186;180,2834;
0,975675;1,231702;1,635575;321,6193;0,9954256;180,2868;
0,9756285;1,231651;1,635548;321,62;0,9836163;180,2939;
0,9756156;1,23162;1,63554;321,6254;0,97614;180,2894;
0,9755874;1,231635;1,635583;321,6263;0,9771051;180,2866;
0,9756119;1,231694;1,635689;321,6277;0,9895465;180,2867;
0,9756348;1,231665;1,635587;321,6273;0,9841282;180,2837;
0,9757174;1,231697;1,635647;321,6248;0,9842452;180,2778;
0,9757146;1,231614;1,63565;321,6249;1,003628;180,267;
0,9756798;1,231608;1,63567;321,6198;0,9913696;180,2733;
0,9757227;1,23161;1,635611;321,6223;1,003792;180,2694;
0,9757605;1,23166;1,635583;321,6158;0,9997438;180,2727;
0,9756881;1,231685;1,63551;321,6106;1,010388;180,2733;
0,9757246;1,231685;1,63549;321,6129;1,012638;180,2652;
0,9756916;1,231701;1,635505;321,6158;1,007916;180,267;
0,9756875;1,231729;1,635543;321,625;0,9985271;180,2609;
0,9756593;1,231743;1,635515;321,6245;1,014016;180,2603;
0,9758096;1,231654;1,635641;321,6215;1,005482;180,2588;
0,9758184;1,231707;1,635671;321,6321;1,013533;180,2605;
0,975731;1,231642;1,635704;321,6286;1,010978;180,2533;
0,975628;1,231669;1,635647;321,6349;1,001951;180,2675;
0,9756436;1,231774;1,635643;321,638;1,012962;180,2536;
0,9756162;1,231745;1,635671;321,6314;0,9981604;180,2625;
0,9755726;1,231734;1,635699;321,6388;0,996347;180,2567;
0,9755453;1,231623;1,635731;321,6293;0,993316;180,2631;
0,9756281;1,231622;1,635773;321,6372;1,006662;180,2551;
0,9756021;1,231729;1,635752;321,6248;0,9978106;180,26;
0,975642;1,231645;1,635609;321,6235;0,9921913;180,2567;
0,9757363;1,231733;1,63552;321,628;0,9912221;180,2589;
0,9756942;1,231772;1,635538;321,6216;0,9900907;180,2563;
0,9756292;1,23176;1,635663;321,6243;0,9898052;180,2668;
0,9756005;1,231746;1,635635;321,6234;0,9932329;180,2607;
0,9756203;1,231748;1,635618;321,6303;1,006001;180,2581;
0,9757407;1,23159;1,635503;321,6298;1,004703;180,2665;
0,9757725;1,231611;1,635381;321,6306;1,005947;180,2646;
0,9758109;1,231644;1,635441;321,6312;0,9989365;180,2701;
0,9757475;1,231699;1,635512;321,6353;1,016031;180,2608;
0,9757341;1,231666;1,635484;321,629;1,011354;180,2625;
0,9756756;1,231699;1,635508;321,6262;1,023183;180,2757;
0,9757777;1,231621;1,635498;321,6194;1,016863;180,2692;
0,9757919;1,231628;1,635498;321,6246;1,021089;180,2659;
0,9757746;1,231597;1,635816;321,6318;1,013789;180,2755;
0,9757069;1,231713;1,635858;321,6376;0,995093;180,269;
0,9758157;1,231777;1,635645;321,6298;1,006304;180,2688;
0,9758915;1,231784;1,635635;321,6241;1,010029;180,2621;
0,9759722;1,231703;1,635502;321,6276;1,00439;180,2708;
0,9759581;1,231623;1,63545;321,6319;1,017779;180,2589;
0,9758335;1,231725;1,63547;321,6417;1,001439;180,2704;
0,9757553;1,231626;1,635427;321,6417;0,9947963;180,2903;
0,9756087;1,231623;1,635524;321,6331;1,005749;180,2786;
0,9755604;1,231663;1,635504;321,639;1,000266;180,2706;
0,9756527;1,231647;1,635486;321,6374;1,012698;180,2669;
0,9756119;1,231602;1,635522;321,645;1,011165;180,265;
0,9757117;1,231638;1,635501;321,6295;1,001418;180,2728;
0,9757282;1,231715;1,635423;321,6392;1,024488;180,2614;
0,9758394;1,231719;1,635472;321,6403;1,023194;180,264;
0,9757236;1,231675;1,635624;321,6377;1,008726;180,2715;
0,9757575;1,231682;1,635697;321,6418;1,025939;180,2643;
0,9758471;1,231675;1,635747;321,6399;1,018754;180,2657;
0,975781;1,231587;1,635664;321,6411;1,022218;180,2697;
0,9757001;1,231661;1,635499;321,6297;1,0131;180,2783;
0,9757526;1,231578;1,635473;321,6386;1,009438;180,2769;
0,9758195;1,231587;1,63548;321,6418;1,016248;180,2766;
0,9759649;1,231702;1,635565;321,6331;1,013401;180,2695;
0,9760085;1,231755;1,635546;321,6409;1,015129;180,2725;
0,9758766;1,231756;1,635452;321,6315;1,004327;180,2762;
0,975721;1,231659;1,635553;321,6398;1,012077;180,2855;
0,975708;1,231649;1,635551;321,6364;1,009346;180,2871;
0,975648;1,231666;1,635527;321,6335;1,007564;180,2771;
0,9756274;1,231715;1,6355;321,6415;1,008814;180,2809;
0,975626;1,23158;1,635522;321,6401;0,99873;180,2741;
0,9756193;1,231572;1,635532;321,6441;0,9752305;180,2858;
0,9756182;1,231632;1,635535;321,6404;0,9894181;180,2812;
0,9757873;1,231762;1,635634;321,6452;0,9874184;180,2733;
0,9757795;1,231722;1,635631;321,6393;0,9814115;180,2815;
0,9757891;1,231727;1,635635;321,6453;0,9928862;180,2721;
0,9757797;1,231602;1,635573;321,6458;0,9829156;180,2798;
