-1,017395;1,157531;1,663145;58,89712;354,3123;358,6079;
-1,017374;1,157525;1,663151;58,89937;354,3019;358,603;
-1,017106;1,156992;1,663108;58,90532;354,3111;358,6083;
-1,017081;1,15696;1,663129;58,901;354,3107;358,6031;
-1,017604;1,157806;1,663111;58,89642;354,313;358,6138;
-1,017598;1,157814;1,663116;58,89641;354,3096;358,6066;
-1,017566;1,157825;1,663109;58,89141;354,3125;358,6108;
-1,017556;1,157848;1,663097;58,89088;354,3143;358,6147;
-1,017553;1,157872;1,663083;58,89505;354,3101;358,611;
-1,017531;1,157887;1,663075;58,89267;354,3117;358,614;
-1,017517;1,157876;1,663085;58,89529;354,3082;358,6074;
-1,017864;1,157845;1,663175;58,89418;354,3371;358,6435;
-1,017959;1,157863;1,663177;58,89902;354,3446;358,6556;
-1,017767;1,15766;1,663078;58,88617;354,3144;358,6252;
-1,017832;1,157715;1,663005;58,88567;354,3291;358,6561;
-1,018027;1,158126;1,663011;58,88857;354,3304;358,6412;
-1,017989;1,157992;1,663055;58,89283;354,3453;358,6459;
-1,018063;1,158215;1,663066;58,89755;354,3428;358,6448;
-1,017748;1,157965;1,663122;58,90504;354,322;358,6202;
-1,017752;1,157962;1,663119;58,90088;354,3306;358,6256;
-1,017967;1,158219;1,663081;58,90346;354,3328;358,6257;
-1,017971;1,15824;1,663077;58,90866;354,3237;358,6224;
-1,017983;1,158244;1,663067;58,89693;354,3175;358,6119;
-1,018012;1,15822;1,663039;58,91397;354,3256;358,6154;
-1,017469;1,157238;1,663118;58,91615;354,3315;358,6222;
-1,017469;1,157232;1,66312;58,91725;354,3129;358,5995;
-1,017474;1,157217;1,66312;58,9154;354,3333;358,6246;
-1,017088;1,156825;1,663115;58,90716;354,2929;358,5833;
-1,01708;1,156814;1,663117;58,92056;354,3049;358,5894;
-1,017175;1,15698;1,663137;58,91546;354,3062;358,5916;
-1,017002;1,156802;1,663168;58,91993;354,2891;358,5706;
-1,017051;1,156794;1,66311;58,92044;354,2993;358,5977;
-1,017036;1,156783;1,663101;58,9187;354,3112;358,613;
-1,017057;1,15698;1,663148;58,92488;354,2853;358,5833;
-1,017011;1,156959;1,663146;58,92129;354,2744;358,577;
-1,016999;1,156961;1,663151;58,9247;354,2884;358,5847;
-1,016958;1,156957;1,663167;58,92508;354,2807;358,5734;
-1,016917;1,156947;1,663186;58,92971;354,2775;358,5735;
-1,017306;1,157184;1,6631;58,91371;354,3162;358,614;
-1,01742;1,157449;1,663121;58,9091;354,3245;358,6119;
-1,017593;1,157623;1,663144;58,91066;354,3225;358,6135;
-1,01767;1,157693;1,663144;58,9152;354,3305;358,6247;
-1,017729;1,157966;1,663077;58,90939;354,3242;358,6297;
-1,017936;1,158267;1,663063;58,91167;354,3163;358,6267;
-1,018155;1,158583;1,662959;58,90324;354,3305;358,6444;
-1,018311;1,158826;1,662926;58,89621;354,3244;358,6401;
-1,018206;1,158462;1,662989;58,89721;354,3355;358,6451;
-1,018232;1,158693;1,663054;58,90609;354,3268;358,641;
-1,018235;1,158684;1,663072;58,89212;354,3383;358,6531;
-1,018323;1,158652;1,663121;58,90122;354,3305;358,6501;
-1,018401;1,158646;1,663232;58,90202;354,3367;358,656;
-1,018458;1,158629;1,663218;58,89736;354,3483;358,666;
-1,018315;1,158614;1,663057;58,90253;354,3506;358,6627;
-1,018338;1,1586;1,663041;58,88746;354,34;358,6536;
-1,017987;1,158153;1,662952;58,89087;354,3473;358,6739;
-1,017886;1,158215;1,663031;58,89171;354,3198;358,6363;
-1,017903;1,158149;1,663027;58,89555;354,3272;358,6403;
-1,017726;1,157936;1,663005;58,9;354,3169;358,6291;
-1,017664;1,157735;1,663027;58,9015;354,305;358,6145;
-1,017243;1,156935;1,663216;58,90318;354,314;358,6166;
-1,01702;1,156677;1,663206;58,91135;354,3076;358,6048;
-1,016795;1,156466;1,663182;58,91109;354,3054;358,5915;
-1,016723;1,156418;1,663211;58,91833;354,2737;358,5642;
-1,016678;1,156351;1,663236;58,90993;354,2788;358,5743;
-1,016442;1,155908;1,663268;58,91436;354,2864;358,5795;
-1,016395;1,155836;1,66328;58,91367;354,2753;358,5731;
-1,016368;1,155895;1,663215;58,91521;354,2706;358,5663;
-1,016549;1,156245;1,663056;58,90166;354,2629;358,5593;
-1,016731;1,156188;1,663063;58,90502;354,3032;358,6137;
-1,016708;1,156132;1,663054;58,90469;354,2827;358,5935;
-1,016306;1,155655;1,663085;58,9105;354,2706;358,5872;
-1,016448;1,155854;1,663128;58,90812;354,2803;358,5903;
-1,016414;1,155805;1,663128;58,90739;354,2855;358,5974;
-1,016523;1,156034;1,66317;58,9165;354,2814;358,5926;
-1,016491;1,15599;1,663168;58,91365;354,3028;358,6141;
-1,016468;1,156012;1,66314;58,90888;354,2889;358,6064;
-1,016601;1,156137;1,663207;58,90848;354,3002;358,6219;
-1,016419;1,155975;1,663202;58,91582;354,3005;358,6157;
-1,016324;1,155895;1,663158;58,91556;354,291;358,6019;
-1,016287;1,155846;1,663169;58,90947;354,2907;358,6042;
-1,01645;1,156145;1,663162;58,91385;354,292;358,6148;
-1,016419;1,156118;1,663163;58,91359;354,2815;358,601;
-1,016095;1,155399;1,663082;58,91559;354,2741;358,5921;
-1,016238;1,155457;1,663139;58,92327;354,2929;358,622;
-1,015985;1,155241;1,663165;58,92211;354,289;358,6072;
-1,015905;1,154889;1,663145;58,92142;354,2828;358,6031;
-1,015841;1,154776;1,663164;58,92104;354,2866;358,6008;
-1,015511;1,154529;1,66325;58,9263;354,2649;358,5887;
-1,015431;1,1544;1,663294;58,93021;354,2462;358,5698;
-1,01532;1,154261;1,663335;58,93262;354,2478;358,5671;
-1,015217;1,154154;1,663373;58,93637;354,2559;358,5739;
-1,015615;1,155026;1,663166;58,92215;354,2354;358,5609;
-1,015904;1,155204;1,663197;58,92615;354,2491;358,5823;
-1,016365;1,155633;1,663137;58,9098;354,2737;358,6233;
-1,016344;1,155589;1,663144;58,91083;354,2668;358,6143;
-1,01643;1,155931;1,663177;58,91415;354,2722;358,6122;
-1,016118;1,155456;1,663131;58,92167;354,2582;358,5954;
-1,015831;1,155056;1,663154;58,91848;354,2492;358,5836;
-1,015694;1,154968;1,663169;58,91702;354,244;358,5669;
-1,015613;1,15488;1,663157;58,92319;354,243;358,5657;
-1,015563;1,154789;1,663153;58,91974;354,2386;358,5616;
-1,015608;1,154811;1,663203;58,92874;354,2567;358,5902;
-1,01553;1,154733;1,663211;58,93237;354,2401;358,5568;
-1,015454;1,154628;1,663225;58,92429;354,2555;358,5757;
-1,015364;1,154558;1,663218;58,92625;354,259;358,5846;
-1,015321;1,154467;1,663088;58,922;354,2534;358,5771;
-1,015244;1,154383;1,663078;58,91574;354,2534;358,5742;
-1,015161;1,154307;1,663078;58,92206;354,2518;358,5785;
-1,01508;1,154214;1,663083;58,92211;354,2572;358,5797;
-1,01514;1,154422;1,66323;58,9341;354,25;358,5663;
-1,015104;1,154379;1,663247;58,93123;354,2559;358,5739;
-1,015013;1,154286;1,663286;58,92352;354,2544;358,5729;
-1,016007;1,155135;1,663144;58,91416;354,2948;358,6251;
-1,016289;1,155465;1,663163;58,92602;354,3101;358,639;
-1,016311;1,155463;1,663158;58,9319;354,3226;358,6554;
-1,016347;1,155398;1,663163;58,923;354,3142;358,6423;
-1,015912;1,155014;1,663108;58,9169;354,3109;358,6294;
-1,015777;1,154922;1,663132;58,92451;354,2818;358,5943;
-1,015752;1,154895;1,663129;58,92116;354,2751;358,5943;
-1,015779;1,154981;1,663127;58,92231;354,2643;358,5797;
-1,01576;1,154948;1,66314;58,92;354,2811;358,5922;
-1,015723;1,154917;1,663148;58,92128;354,2774;358,5881;
-1,015687;1,154898;1,663138;58,91775;354,2654;358,5831;
-1,015833;1,155234;1,663194;58,93011;354,2646;358,5771;
-1,016222;1,155761;1,663198;58,93346;354,2747;358,5949;
-1,016221;1,155751;1,663206;58,92772;354,2975;358,6066;
-1,016214;1,155738;1,66322;58,9247;354,2699;358,5894;
-1,016218;1,155723;1,663247;58,93033;354,287;358,6021;
-1,01621;1,155495;1,66324;58,91741;354,2939;358,6159;
-1,016378;1,155824;1,663178;58,90932;354,2748;358,6086;
-1,016669;1,156288;1,6632;58,92054;354,2836;358,6137;
-1,016667;1,156362;1,66318;58,911;354,2736;358,6082;
-1,016659;1,156358;1,663181;58,91344;354,2779;358,6035;
-1,016658;1,156354;1,663195;58,91355;354,2725;358,6016;
-1,016644;1,156328;1,663211;58,91292;354,2844;358,6113;
-1,016631;1,156253;1,663259;58,90542;354,2729;358,6084;
-1,016621;1,156207;1,663273;58,90737;354,2797;358,6156;
-1,016614;1,156182;1,663298;58,91024;354,2811;358,6127;
-1,016703;1,156236;1,663247;58,91163;354,2657;358,6003;
-1,016613;1,156129;1,663202;58,90482;354,2809;358,6189;
-1,016645;1,156352;1,663064;58,90034;354,2552;358,5978;
-1,016809;1,156361;1,663058;58,9052;354,2715;358,6172;
-1,016886;1,156742;1,663058;58,90925;354,2726;358,612;
-1,017034;1,156759;1,663196;58,91701;354,2922;358,6228;
-1,017213;1,156945;1,663163;58,91161;354,3124;358,6324;
-1,017061;1,156819;1,663177;58,91048;354,284;358,6129;
-1,017042;1,156822;1,663185;58,90728;354,3055;358,6329;
-1,017137;1,157115;1,663154;58,91732;354,3288;358,6463;
-1,017328;1,15748;1,663158;58,90253;354,3085;358,6217;
-1,017473;1,157616;1,663062;58,90376;354,3176;358,6272;
-1,017315;1,1573;1,663129;58,91448;354,3259;358,6454;
-1,017513;1,157667;1,663134;58,92162;354,335;358,6416;
-1,017553;1,157843;1,663182;58,91114;354,3178;358,6351;
