-1,028817;1,152078;1,160185;58,27816;355,3157;358,2512;
-1,028744;1,151864;1,16015;58,27737;355,3008;358,2384;
-1,028517;1,151661;1,16003;58,27745;355,2869;358,2235;
-1,0285;1,151654;1,160026;58,27628;355,2913;358,2342;
-1,028354;1,151504;1,16002;58,27984;355,2787;358,2246;
-1,028337;1,15149;1,160025;58,27254;355,2801;358,226;
-1,028558;1,15181;1,16012;58,2756;355,2988;358,2421;
-1,02851;1,151634;1,159996;58,27377;355,2848;358,2335;
-1,028578;1,151831;1,160027;58,27256;355,2857;358,2267;
-1,028543;1,151793;1,159997;58,28142;355,2696;358,22;
-1,028676;1,151927;1,16005;58,27386;355,2759;358,2206;
-1,028593;1,151756;1,160076;58,27604;355,2606;358,2126;
-1,028595;1,151751;1,16008;58,27343;355,2687;358,2191;
-1,028605;1,151744;1,160079;58,28922;355,2599;358,214;
-1,028604;1,151818;1,160146;58,27314;355,2786;358,2248;
-1,028652;1,151895;1,160114;58,26389;355,2771;358,2217;
-1,028739;1,152073;1,160131;58,26315;355,3049;358,2409;
-1,028822;1,152191;1,160176;58,27615;355,3016;358,2324;
-1,028744;1,152078;1,160139;58,26225;355,2799;358,2184;
-1,028682;1,151988;1,160125;58,27444;355,2925;358,2276;
-1,02859;1,15173;1,160099;58,27713;355,2776;358,2194;
-1,028445;1,151486;1,160024;58,27591;355,269;358,2156;
-1,028381;1,151433;1,159892;58,265;355,2696;358,2108;
-1,028313;1,151278;1,159865;58,2653;355,2525;358,1942;
-1,028289;1,151409;1,159928;58,27177;355,2473;358,1922;
-1,028294;1,151415;1,15997;58,27249;355,2542;358,1951;
-1,028295;1,151388;1,159933;58,27152;355,2848;358,2211;
-1,028213;1,151296;1,159836;58,26539;355,2631;358,1924;
-1,028165;1,151346;1,159871;58,27291;355,2833;358,2102;
-1,02808;1,151099;1,159785;58,27283;355,2766;358,2083;
-1,02805;1,151087;1,159739;58,27343;355,2649;358,2128;
-1,028217;1,151336;1,159821;58,26658;355,2675;358,2096;
-1,028145;1,151194;1,159782;58,27092;355,284;358,2242;
-1,028214;1,151328;1,159844;58,26479;355,2893;358,229;
-1,028265;1,151377;1,159898;58,27229;355,2839;358,2221;
-1,028485;1,151744;1,159996;58,27543;355,2851;358,2199;
-1,028454;1,15165;1,159967;58,26937;355,3054;358,244;
-1,028482;1,151672;1,159942;58,27058;355,2922;358,2289;
-1,028431;1,151748;1,160019;58,26493;355,2821;358,231;
-1,028416;1,15175;1,160001;58,27085;355,2941;358,2412;
-1,028467;1,15184;1,160013;58,27664;355,3086;358,245;
-1,028466;1,151857;1,160004;58,28812;355,3032;358,2429;
-1,028483;1,151823;1,160011;58,27881;355,3;358,2469;
-1,02848;1,151809;1,160008;58,27559;355,3003;358,2415;
-1,028454;1,151789;1,159981;58,26406;355,3081;358,2542;
-1,028465;1,151793;1,159969;58,28016;355,3071;358,2471;
-1,028502;1,151628;1,159943;58,27247;355,3181;358,2631;
-1,028656;1,151902;1,160014;58,28136;355,3205;358,2638;
-1,028746;1,15215;1,160094;58,28639;355,3033;358,2467;
-1,028817;1,152082;1,160091;58,27283;355,3244;358,2595;
-1,028799;1,152034;1,160098;58,28483;355,3405;358,2797;
-1,028941;1,152268;1,160182;58,28239;355,3393;358,278;
-1,02896;1,152259;1,160177;58,28257;355,3405;358,2789;
-1,028677;1,151993;1,160112;58,28411;355,3326;358,2661;
-1,028684;1,151986;1,160111;58,28016;355,3235;358,2497;
-1,028694;1,151963;1,160099;58,27838;355,2995;358,2324;
-1,02869;1,151925;1,160183;58,29052;355,316;358,2495;
-1,028467;1,151548;1,16;58,28629;355,3066;358,2441;
-1,028471;1,151516;1,160005;58,29552;355,308;358,2492;
-1,028317;1,151251;1,159908;58,28916;355,2849;358,2316;
-1,028322;1,151188;1,159924;58,29075;355,3057;358,2437;
-1,028169;1,150972;1,15985;58,2797;355,2859;358,2292;
-1,028147;1,150887;1,159818;58,27449;355,2897;358,2215;
-1,027888;1,150608;1,159729;58,27459;355,2733;358,2064;
-1,027758;1,150524;1,159689;58,28492;355,2683;358,2008;
-1,027803;1,150743;1,159778;58,28044;355,2632;358,1984;
-1,027904;1,150904;1,159796;58,27645;355,2648;358,1954;
-1,027848;1,150853;1,159738;58,26579;355,276;358,2024;
-1,028084;1,151203;1,159893;58,27201;355,2703;358,2023;
-1,028271;1,151379;1,159927;58,26974;355,2796;358,2065;
-1,02826;1,151189;1,159838;58,27373;355,2807;358,2154;
-1,028319;1,151405;1,159884;58,27393;355,2816;358,218;
-1,028375;1,151587;1,160014;58,27292;355,262;358,2008;
-1,028494;1,151593;1,160037;58,28146;355,2991;358,2274;
-1,02853;1,151634;1,160047;58,27229;355,2965;358,2234;
-1,02869;1,151888;1,160068;58,27349;355,2912;358,2234;
-1,0286;1,151812;1,160076;58,27567;355,262;358,1881;
-1,02852;1,151634;1,160008;58,27915;355,2742;358,2013;
-1,028557;1,151824;1,160121;58,28078;355,2721;358,2011;
-1,028594;1,151863;1,160163;58,27618;355,2745;358,2033;
-1,028602;1,151814;1,160145;58,28099;355,2724;358,205;
-1,028559;1,151874;1,160112;58,27221;355,267;358,1986;
-1,028646;1,151945;1,160109;58,28211;355,2776;358,1987;
-1,028629;1,15192;1,160044;58,27722;355,2861;358,2134;
-1,028656;1,151989;1,160116;58,27179;355,2783;358,2004;
-1,028408;1,151538;1,159996;58,27179;355,2696;358,1914;
-1,028327;1,151263;1,159902;58,27327;355,2626;358,1951;
-1,028607;1,15168;1,160025;58,27348;355,2809;358,2093;
-1,028742;1,15195;1,160066;58,27703;355,3085;358,235;
-1,028979;1,152427;1,160299;58,27426;355,2928;358,2149;
-1,02901;1,152459;1,160314;58,27726;355,2826;358,2033;
-1,02913;1,152503;1,160361;58,28036;355,3071;358,2286;
-1,029112;1,152396;1,160318;58,28741;355,2954;358,2189;
-1,029126;1,152413;1,160325;58,27357;355,278;358,2038;
-1,029186;1,152654;1,160383;58,27416;355,3051;358,2228;
-1,029182;1,152824;1,160353;58,2778;355,3073;358,2157;
-1,029189;1,152871;1,160354;58,27569;355,3019;358,2166;
-1,029222;1,152964;1,160358;58,27916;355,3051;358,2108;
-1,029238;1,153006;1,160357;58,27699;355,3161;358,2257;
-1,029247;1,153065;1,160358;58,2771;355,329;358,2366;
-1,029286;1,15316;1,160339;58,27707;355,2997;358,2116;
-1,029295;1,153198;1,160349;58,27224;355,3159;358,2188;
-1,02932;1,153255;1,160351;58,28371;355,2997;358,2104;
-1,029289;1,153131;1,160515;58,28617;355,3221;358,2225;
-1,029384;1,152973;1,160463;58,27611;355,3255;358,2331;
-1,029168;1,152699;1,160363;58,2717;355,3155;358,2201;
-1,028965;1,152289;1,160236;58,27127;355,3201;358,2325;
-1,029148;1,152645;1,160353;58,27018;355,3091;358,2246;
-1,029168;1,152671;1,160363;58,27065;355,326;358,2329;
-1,028979;1,152303;1,160243;58,27664;355,3177;358,2335;
-1,028866;1,152059;1,160115;58,26593;355,3083;358,2259;
-1,028732;1,152075;1,160202;58,27367;355,297;358,2108;
-1,028828;1,152162;1,160238;58,2704;355,2955;358,2115;
-1,029033;1,152427;1,160319;58,26205;355,3038;358,2187;
-1,029079;1,152623;1,16039;58,26842;355,3104;358,2231;
-1,029104;1,152543;1,160281;58,26577;355,3138;358,2209;
-1,028969;1,152485;1,160339;58,27116;355,3219;358,2345;
-1,029053;1,152521;1,160358;58,26707;355,32;358,2244;
-1,02887;1,152063;1,160219;58,27485;355,319;358,2302;
-1,028876;1,152077;1,16018;58,27539;355,2983;358,2088;
-1,028811;1,152178;1,160203;58,27882;355,3164;358,2251;
-1,028832;1,152104;1,16008;58,27044;355,3098;358,2121;
-1,028724;1,152112;1,160171;58,27321;355,3108;358,2129;
-1,028701;1,152112;1,16018;58,26989;355,3033;358,2003;
-1,028555;1,151728;1,160049;58,26537;355,2875;358,1938;
-1,028489;1,151523;1,159995;58,26846;355,3013;358,2027;
-1,028321;1,151459;1,160021;58,27439;355,3042;358,2186;
-1,028338;1,151509;1,15999;58,28003;355,3055;358,2137;
-1,028302;1,151401;1,159939;58,27903;355,2828;358,2017;
-1,028329;1,151265;1,159901;58,28652;355,3022;358,2231;
-1,028309;1,151215;1,159896;58,27534;355,3048;358,2253;
-1,02831;1,151136;1,159881;58,28111;355,299;358,2193;
-1,028283;1,151241;1,159888;58,27147;355,2903;358,2183;
-1,028297;1,151318;1,159905;58,27834;355,2938;358,2109;
-1,028283;1,151306;1,159902;58,27854;355,3;358,2182;
-1,028146;1,151076;1,159797;58,27325;355,2947;358,2133;
-1,028188;1,151193;1,159853;58,27515;355,3058;358,228;
-1,028369;1,151452;1,159958;58,28067;355,3093;358,2306;
-1,02835;1,151468;1,159947;58,27158;355,2814;358,2043;
-1,028266;1,151412;1,159932;58,27543;355,2944;358,2162;
-1,028372;1,151652;1,16001;58,27955;355,2874;358,2119;
-1,028369;1,151646;1,160017;58,26418;355,2945;358,2183;
-1,028464;1,15174;1,160085;58,28437;355,291;358,2246;
-1,028414;1,151622;1,160024;58,28374;355,2916;358,2278;
-1,028407;1,151626;1,160026;58,27775;355,2877;358,2276;
-1,028447;1,151721;1,160039;58,27897;355,3068;358,2447;
-1,028467;1,151646;1,159977;58,26802;355,3047;358,2473;
-1,028477;1,151641;1,159972;58,27325;355,2994;358,2415;
-1,028513;1,151623;1,160005;58,27727;355,3137;358,2494;
-1,028531;1,151613;1,160016;58,27827;355,3079;358,2534;
-1,028567;1,151689;1,160095;58,28099;355,2893;358,2292;
