1,005107;1,116663;0,1890234;54,30869;356,205;359,2552;
1,005346;1,116591;0,1889144;54,3124;356,1982;359,2469;
1,005349;1,116587;0,188907;54,31209;356,1931;359,2473;
1,005406;1,116509;0,188877;54,31313;356,2068;359,2553;
1,005535;1,11654;0,1887745;54,30912;356,2106;359,2499;
1,005792;1,1164;0,1886562;54,30923;356,2052;359,2452;
1,005566;1,116515;0,1887759;54,30596;356,1955;359,2414;
1,005546;1,116498;0,1887845;54,3088;356,1951;359,239;
1,005722;1,116392;0,1886677;54,30696;356,2099;359,2561;
1,005744;1,116379;0,1886612;54,30267;356,2039;359,2481;
1,006143;1,116219;0,1884705;54,30669;356,1973;359,2391;
1,006163;1,116201;0,1884662;54,30657;356,1894;359,2316;
1,006268;1,116101;0,1884574;54,29861;356,1995;359,242;
1,006768;1,115891;0,1882166;54,3003;356,189;359,2326;
1,007137;1,115737;0,1880716;54,30661;356,1889;359,2334;
1,007323;1,115693;0,1879958;54,3068;356,1814;359,2236;
1,007466;1,115612;0,187924;54,30949;356,1785;359,2177;
1,007499;1,115593;0,1878768;54,29767;356,2024;359,2413;
1,00754;1,115561;0,1878551;54,30273;356,1919;359,2307;
1,007236;1,115717;0,1878947;54,30488;356,2;359,2419;
1,007079;1,11579;0,1879419;54,3075;356,182;359,2285;
1,007404;1,115647;0,1878055;54,30766;356,1956;359,2367;
1,007444;1,115635;0,1877834;54,3058;356,1919;359,2291;
1,007517;1,115633;0,187795;54,31096;356,1856;359,226;
1,007348;1,115757;0,1879216;54,30983;356,1923;359,2356;
1,007116;1,115864;0,1878957;54,31131;356,2012;359,2426;
1,007141;1,115865;0,1878699;54,31575;356,2065;359,2494;
1,006399;1,116223;0,1882859;54,30983;356,2079;359,2509;
1,006285;1,116281;0,1884121;54,32491;356,1994;359,2426;
1,006303;1,11629;0,1884092;54,32242;356,1929;359,2352;
1,006162;1,116323;0,1884614;54,32175;356,1902;359,2379;
1,006176;1,116341;0,1884547;54,32209;356,1902;359,2357;
1,006091;1,116331;0,1884881;54,31995;356,2005;359,2481;
1,006356;1,116185;0,1883606;54,31777;356,2043;359,2518;
1,006442;1,116176;0,1883849;54,32021;356,216;359,2591;
1,006357;1,116149;0,1883723;54,32011;356,1993;359,2469;
1,006268;1,116201;0,1883401;54,31298;356,201;359,2487;
1,006276;1,116184;0,1883234;54,31466;356,2194;359,2596;
1,006284;1,116193;0,1883136;54,31476;356,1971;359,2397;
1,006275;1,116287;0,1882986;54,31091;356,2141;359,2555;
1,006251;1,116271;0,1883501;54,3081;356,2196;359,2584;
1,006472;1,116115;0,1882347;54,31081;356,2074;359,2516;
1,006503;1,11611;0,1882156;54,30978;356,2072;359,2476;
1,006806;1,115962;0,1882275;54,30476;356,2064;359,2467;
1,006631;1,11602;0,1883255;54,30476;356,2152;359,2495;
1,006652;1,116015;0,1883136;54,30315;356,2123;359,2507;
1,006341;1,116075;0,1883591;54,30567;356,22;359,2542;
1,006296;1,11611;0,1883053;54,30844;356,2225;359,2574;
1,006184;1,116211;0,1883625;54,31715;356,2084;359,2482;
1,005747;1,116412;0,1887029;54,31592;356,2313;359,2681;
1,005126;1,116659;0,18897;54,30855;356,2283;359,2624;
1,004949;1,116706;0,1889533;54,3144;356,2209;359,251;
1,004455;1,117002;0,189237;54,3108;356,2294;359,2585;
1,004747;1,116909;0,1891676;54,31327;356,2163;359,2443;
1,004559;1,116992;0,1892906;54,31615;356,2196;359,2463;
1,004895;1,116852;0,1890823;54,30742;356,2124;359,2458;
1,004879;1,116805;0,1890355;54,31434;356,2135;359,2563;
1,00495;1,116855;0,1889876;54,31559;356,2221;359,2563;
1,004782;1,116937;0,1891764;54,30995;356,2206;359,2543;
1,00478;1,116851;0,1891483;54,31132;356,2238;359,2552;
1,003988;1,117292;0,1896271;54,3211;356,231;359,2592;
1,004353;1,117063;0,1895176;54,31352;356,2224;359,257;
1,004599;1,11699;0,1892842;54,30196;356,2281;359,2598;
1,004605;1,116851;0,189258;54,30339;356,2332;359,2607;
1,004581;1,116897;0,189206;54,30007;356,2266;359,2618;
1,005149;1,116697;0,1889082;54,30256;356,2262;359,2539;
1,005182;1,116673;0,1888889;54,29456;356,2394;359,2654;
1,004644;1,116929;0,1890539;54,30131;356,252;359,2739;
1,003988;1,117236;0,1894003;54,30325;356,2445;359,2689;
1,004497;1,116962;0,1892461;54,30098;356,2437;359,264;
1,005103;1,11665;0,1891171;54,29982;356,2315;359,2616;
1,005088;1,116639;0,1891412;54,30626;356,2386;359,2668;
1,005217;1,116582;0,1890794;54,30667;356,2324;359,2631;
1,00564;1,116372;0,1888601;54,31071;356,2231;359,2591;
1,00556;1,116461;0,1887187;54,29538;356,2523;359,2759;
1,005637;1,116429;0,1886564;54,30571;356,234;359,2541;
1,005586;1,1165;0,1885918;54,29808;356,2311;359,2564;
1,005518;1,116524;0,1886131;54,2861;356,2483;359,2704;
1,005517;1,116537;0,1885895;54,2935;356,2378;359,2645;
1,005537;1,116576;0,1885265;54,28989;356,2184;359,2487;
1,005779;1,116497;0,1884769;54,29774;356,2272;359,2544;
1,00578;1,116502;0,1884621;54,29742;356,2328;359,2647;
1,005503;1,11659;0,1888071;54,31249;356,2173;359,2533;
1,005484;1,116557;0,1887773;54,30265;356,2267;359,2588;
1,005329;1,116594;0,18878;54,30573;356,2258;359,2629;
1,005382;1,116655;0,188867;54,30444;356,2287;359,2625;
1,005385;1,116658;0,1888736;54,2983;356,2238;359,2617;
1,00545;1,116589;0,1888098;54,29934;356,2301;359,2617;
1,005556;1,11656;0,1887525;54,30378;356,2158;359,2515;
1,005618;1,116514;0,1887258;54,30736;356,2285;359,2634;
1,005562;1,116586;0,1887935;54,30449;356,2374;359,2624;
1,00544;1,116624;0,1888942;54,29796;356,2405;359,2701;
1,005303;1,116694;0,1890298;54,29508;356,2341;359,2668;
1,004821;1,116823;0,1891683;54,29858;356,2443;359,281;
1,00482;1,116814;0,1891011;54,29678;356,2501;359,2802;
1,004901;1,116845;0,1889719;54,30173;356,2265;359,2642;
1,004549;1,117014;0,1891984;54,31473;356,2341;359,2777;
1,004192;1,11715;0,1894366;54,31734;356,2403;359,2767;
1,00379;1,117429;0,189679;54,31426;356,2375;359,2785;
1,003707;1,117369;0,1896383;54,31216;356,2342;359,2742;
1,003791;1,117302;0,1895872;54,31883;356,2422;359,2766;
1,003835;1,117322;0,189557;54,31371;356,2423;359,2746;
1,003705;1,117339;0,1896392;54,32391;356,2316;359,2715;
1,003237;1,117497;0,1898249;54,31888;356,2411;359,2797;
1,003042;1,117605;0,1900331;54,32365;356,2373;359,2705;
1,002657;1,117806;0,1903476;54,32593;356,2321;359,2668;
1,002257;1,117938;0,1905469;54,31232;356,239;359,2755;
1,002561;1,117815;0,1903514;54,30765;356,2351;359,2718;
1,002643;1,117761;0,1902579;54,29258;356,2511;359,2794;
1,002743;1,11768;0,1901721;54,29478;356,2426;359,2768;
1,002801;1,117642;0,1901261;54,29243;356,239;359,2774;
1,002685;1,117733;0,1902422;54,30416;356,2393;359,2731;
1,002612;1,117712;0,1902632;54,28738;356,2369;359,2686;
1,002609;1,117798;0,1903504;54,29894;356,2309;359,2658;
1,002571;1,117796;0,1903974;54,30258;356,2268;359,2648;
1,002602;1,117737;0,1903282;54,29215;356,239;359,2686;
1,002682;1,117774;0,1902872;54,29664;356,2235;359,2627;
1,002929;1,117681;0,1901914;54,29473;356,223;359,2635;
1,002838;1,117708;0,1901911;54,28959;356,2281;359,2596;
1,002824;1,11772;0,190199;54,29218;356,2338;359,2671;
1,002806;1,117724;0,1902117;54,28783;356,2077;359,2401;
1,002761;1,11775;0,1902224;54,29797;356,2273;359,2552;
1,003268;1,117553;0,1898791;54,29128;356,2263;359,2587;
1,003263;1,117566;0,1898772;54,2914;356,227;359,2534;
1,003433;1,117498;0,1898068;54,29068;356,2439;359,2664;
1,0038;1,117325;0,1895503;54,27774;356,2241;359,2545;
1,003805;1,117351;0,1895264;54,28276;356,2243;359,2477;
1,004609;1,116908;0,1891741;54,29078;356,2232;359,2483;
1,003978;1,117182;0,1893944;54,28363;356,2189;359,2522;
1,004246;1,117096;0,189298;54,28391;356,2245;359,2507;
1,004341;1,117097;0,1894158;54,2854;356,2259;359,2388;
1,004356;1,117095;0,1894063;54,28798;356,2161;359,2336;
1,004024;1,117215;0,1895751;54,28884;356,234;359,2552;
1,004042;1,117221;0,1895865;54,29247;356,2071;359,2335;
1,003932;1,117254;0,1894969;54,29466;356,2265;359,246;
1,003937;1,11725;0,1894864;54,29092;356,2225;359,2545;
1,003952;1,117229;0,1894792;54,29573;356,2301;359,2607;
1,003953;1,117228;0,1894776;54,29635;356,2308;359,2555;
1,003274;1,117506;0,1899158;54,29795;356,2214;359,2479;
1,003262;1,117502;0,189927;54,30159;356,2313;359,2471;
1,002999;1,117644;0,1900798;54,30721;356,2355;359,26;
1,003065;1,117597;0,1900123;54,30426;356,2448;359,2673;
1,003026;1,11761;0,190025;54,30934;356,2193;359,2552;
1,003419;1,117443;0,1898264;54,30104;356,209;359,2435;
1,003362;1,117434;0,1898469;54,29547;356,2206;359,2629;
1,003892;1,11731;0,18969;54,3066;356,2302;359,2594;
1,004271;1,117133;0,1896077;54,31506;356,2164;359,2518;
1,004449;1,117065;0,189551;54,30699;356,2089;359,2413;
1,004344;1,117111;0,1894854;54,31104;356,2214;359,2537;
1,004066;1,117297;0,189521;54,29598;356,2187;359,251;
1,003857;1,117335;0,1896893;54,30018;356,2326;359,2667;
1,003963;1,117275;0,1896623;54,30258;356,2394;359,2703;
1,004373;1,117033;0,189391;54,29908;356,2235;359,2544;
1,004486;1,116859;0,1893016;54,298;356,2275;359,2626;
1,004708;1,116871;0,1891564;54,30275;356,2373;359,2665;
1,004813;1,116836;0,1890908;54,29698;356,2345;359,2622;
